﻿-d:DEBUG
-d:TRACE
-d:NETSTANDARD1_6
-nowarn:CS1701
-nowarn:CS1702
-nowarn:CS1705
-t:library
-debug:full
-nostdlib
-nologo
"E:\gitHub\netcorepractice\ConsoleApp\src\Utility\obj\Debug\netstandard1.6\dotnet-compile.assemblyinfo.cs"
-out:"E:\gitHub\netcorepractice\ConsoleApp\src\Utility\bin\Debug\netstandard1.6\Utility.dll"
-r:"C:\Users\Administrator\.nuget\packages\Microsoft.CSharp\4.0.1\ref\netstandard1.0\Microsoft.CSharp.dll"
-r:"C:\Users\Administrator\.nuget\packages\Microsoft.Win32.Primitives\4.0.1\ref\netstandard1.3\Microsoft.Win32.Primitives.dll"
-r:"C:\Users\Administrator\.nuget\packages\Serilog\2.2.0\lib\netstandard1.3\Serilog.dll"
-r:"C:\Users\Administrator\.nuget\packages\Serilog.Sinks.File\3.0.0\lib\netstandard1.3\Serilog.Sinks.File.dll"
-r:"C:\Users\Administrator\.nuget\packages\Serilog.Sinks.Literate\2.0.0\lib\netstandard1.3\Serilog.Sinks.Literate.dll"
-r:"C:\Users\Administrator\.nuget\packages\Serilog.Sinks.RollingFile\3.0.0\lib\netstandard1.3\Serilog.Sinks.RollingFile.dll"
-r:"C:\Users\Administrator\.nuget\packages\System.AppContext\4.1.0\ref\netstandard1.6\System.AppContext.dll"
-r:"C:\Users\Administrator\.nuget\packages\System.Collections\4.0.11\ref\netstandard1.3\System.Collections.dll"
-r:"C:\Users\Administrator\.nuget\packages\System.Collections.Concurrent\4.0.12\ref\netstandard1.3\System.Collections.Concurrent.dll"
-r:"C:\Users\Administrator\.nuget\packages\System.Console\4.0.0\ref\netstandard1.3\System.Console.dll"
-r:"C:\Users\Administrator\.nuget\packages\System.Diagnostics.Debug\4.0.11\ref\netstandard1.3\System.Diagnostics.Debug.dll"
-r:"C:\Users\Administrator\.nuget\packages\System.Diagnostics.Tools\4.0.1\ref\netstandard1.0\System.Diagnostics.Tools.dll"
-r:"C:\Users\Administrator\.nuget\packages\System.Diagnostics.Tracing\4.1.0\ref\netstandard1.5\System.Diagnostics.Tracing.dll"
-r:"C:\Users\Administrator\.nuget\packages\System.Dynamic.Runtime\4.0.11\ref\netstandard1.3\System.Dynamic.Runtime.dll"
-r:"C:\Users\Administrator\.nuget\packages\System.Globalization\4.0.11\ref\netstandard1.3\System.Globalization.dll"
-r:"C:\Users\Administrator\.nuget\packages\System.Globalization.Calendars\4.0.1\ref\netstandard1.3\System.Globalization.Calendars.dll"
-r:"C:\Users\Administrator\.nuget\packages\System.IO\4.1.0\ref\netstandard1.5\System.IO.dll"
-r:"C:\Users\Administrator\.nuget\packages\System.IO.Compression\4.1.0\ref\netstandard1.3\System.IO.Compression.dll"
-r:"C:\Users\Administrator\.nuget\packages\System.IO.Compression.ZipFile\4.0.1\ref\netstandard1.3\System.IO.Compression.ZipFile.dll"
-r:"C:\Users\Administrator\.nuget\packages\System.IO.FileSystem\4.0.1\ref\netstandard1.3\System.IO.FileSystem.dll"
-r:"C:\Users\Administrator\.nuget\packages\System.IO.FileSystem.Primitives\4.0.1\ref\netstandard1.3\System.IO.FileSystem.Primitives.dll"
-r:"C:\Users\Administrator\.nuget\packages\System.Linq\4.1.0\ref\netstandard1.6\System.Linq.dll"
-r:"C:\Users\Administrator\.nuget\packages\System.Linq.Expressions\4.1.0\ref\netstandard1.6\System.Linq.Expressions.dll"
-r:"C:\Users\Administrator\.nuget\packages\System.Net.Http\4.1.0\ref\netstandard1.3\System.Net.Http.dll"
-r:"C:\Users\Administrator\.nuget\packages\System.Net.Primitives\4.0.11\ref\netstandard1.3\System.Net.Primitives.dll"
-r:"C:\Users\Administrator\.nuget\packages\System.Net.Sockets\4.1.0\ref\netstandard1.3\System.Net.Sockets.dll"
-r:"C:\Users\Administrator\.nuget\packages\System.ObjectModel\4.0.12\ref\netstandard1.3\System.ObjectModel.dll"
-r:"C:\Users\Administrator\.nuget\packages\System.Reflection\4.1.0\ref\netstandard1.5\System.Reflection.dll"
-r:"C:\Users\Administrator\.nuget\packages\System.Reflection.Extensions\4.0.1\ref\netstandard1.0\System.Reflection.Extensions.dll"
-r:"C:\Users\Administrator\.nuget\packages\System.Reflection.Primitives\4.0.1\ref\netstandard1.0\System.Reflection.Primitives.dll"
-r:"C:\Users\Administrator\.nuget\packages\System.Resources.ResourceManager\4.0.1\ref\netstandard1.0\System.Resources.ResourceManager.dll"
-r:"C:\Users\Administrator\.nuget\packages\System.Runtime\4.1.0\ref\netstandard1.5\System.Runtime.dll"
-r:"C:\Users\Administrator\.nuget\packages\System.Runtime.Extensions\4.1.0\ref\netstandard1.5\System.Runtime.Extensions.dll"
-r:"C:\Users\Administrator\.nuget\packages\System.Runtime.Handles\4.0.1\ref\netstandard1.3\System.Runtime.Handles.dll"
-r:"C:\Users\Administrator\.nuget\packages\System.Runtime.InteropServices\4.1.0\ref\netstandard1.5\System.Runtime.InteropServices.dll"
-r:"C:\Users\Administrator\.nuget\packages\System.Runtime.InteropServices.RuntimeInformation\4.0.0\ref\netstandard1.1\System.Runtime.InteropServices.RuntimeInformation.dll"
-r:"C:\Users\Administrator\.nuget\packages\System.Runtime.Numerics\4.0.1\ref\netstandard1.1\System.Runtime.Numerics.dll"
-r:"C:\Users\Administrator\.nuget\packages\System.Security.Cryptography.Algorithms\4.2.0\ref\netstandard1.6\System.Security.Cryptography.Algorithms.dll"
-r:"C:\Users\Administrator\.nuget\packages\System.Security.Cryptography.Encoding\4.0.0\ref\netstandard1.3\System.Security.Cryptography.Encoding.dll"
-r:"C:\Users\Administrator\.nuget\packages\System.Security.Cryptography.Primitives\4.0.0\ref\netstandard1.3\System.Security.Cryptography.Primitives.dll"
-r:"C:\Users\Administrator\.nuget\packages\System.Security.Cryptography.X509Certificates\4.1.0\ref\netstandard1.4\System.Security.Cryptography.X509Certificates.dll"
-r:"C:\Users\Administrator\.nuget\packages\System.Text.Encoding\4.0.11\ref\netstandard1.3\System.Text.Encoding.dll"
-r:"C:\Users\Administrator\.nuget\packages\System.Text.Encoding.Extensions\4.0.11\ref\netstandard1.3\System.Text.Encoding.Extensions.dll"
-r:"C:\Users\Administrator\.nuget\packages\System.Text.RegularExpressions\4.1.0\ref\netstandard1.6\System.Text.RegularExpressions.dll"
-r:"C:\Users\Administrator\.nuget\packages\System.Threading\4.0.11\ref\netstandard1.3\System.Threading.dll"
-r:"C:\Users\Administrator\.nuget\packages\System.Threading.Tasks\4.0.11\ref\netstandard1.3\System.Threading.Tasks.dll"
-r:"C:\Users\Administrator\.nuget\packages\System.Threading.Timer\4.0.1\ref\netstandard1.2\System.Threading.Timer.dll"
-r:"C:\Users\Administrator\.nuget\packages\System.Xml.ReaderWriter\4.0.11\ref\netstandard1.3\System.Xml.ReaderWriter.dll"
-r:"C:\Users\Administrator\.nuget\packages\System.Xml.XDocument\4.0.11\ref\netstandard1.3\System.Xml.XDocument.dll"
"E:\gitHub\netcorepractice\ConsoleApp\src\Utility\SerilogHelper.cs"
"E:\gitHub\netcorepractice\ConsoleApp\src\Utility\Properties\AssemblyInfo.cs"
