{
  "version": "1.0.0-*",

  "dependencies": {
    "NETStandard.Library": "1.6.0",
    "Serilog": "2.2.0",
    "Serilog.Sinks.Literate": "2.0.0",
    "Serilog.Sinks.RollingFile": "3.0.0"
  },

  "frameworks": {
    "netstandard1.6": {
      "imports": "dnxcore50"
    }
  }
}
